module modernc.org/ir

require (
	github.com/remyoudompheng/bigfft v0.0.0-20170806203942-52369c62f446 // indirect
	modernc.org/golex v1.0.0 // indirect
	modernc.org/internal v1.0.0
	modernc.org/mathutil v1.0.0
	modernc.org/strutil v1.0.0
	modernc.org/xc v1.0.0
)
